Top.vcd
$version Generated by VerilatedVcd $end
$date Mon Feb 24 12:01:39 2020
 $end
$timescale   1ns $end

 $scope module TOP $end
  $var wire  1 o" clock $end
  $var wire  8 )# io_fieldNumber [7:0] $end
  $var wire  8 1# io_keySize [7:0] $end
  $var wire  1 A# io_valid $end
  $var wire 16 9# io_valueSize [15:0] $end
  $var wire  3 !# io_wireType [2:0] $end
  $var wire  1 w" reset $end
  $scope module Top $end
   $var wire  8 # OffsetMap_io_input_0 [7:0] $end
   $var wire  8 + OffsetMap_io_input_1 [7:0] $end
   $var wire  8 3 OffsetMap_io_input_2 [7:0] $end
   $var wire  8 ; OffsetMap_io_input_3 [7:0] $end
   $var wire  8 K OffsetMap_io_offset [7:0] $end
   $var wire  8 S OffsetMap_io_output_0 [7:0] $end
   $var wire  8 [ OffsetMap_io_output_1 [7:0] $end
   $var wire  8 c OffsetMap_io_output_2 [7:0] $end
   $var wire  8 k OffsetMap_io_output_3 [7:0] $end
   $var wire  8 K VarintDecoder_io_bytes_read [7:0] $end
   $var wire  8 # VarintDecoder_io_input_0 [7:0] $end
   $var wire  8 + VarintDecoder_io_input_1 [7:0] $end
   $var wire  8 3 VarintDecoder_io_input_2 [7:0] $end
   $var wire  8 ; VarintDecoder_io_input_3 [7:0] $end
   $var wire 32 C VarintDecoder_io_output [31:0] $end
   $var wire 10 M! abs_read_addr [9:0] $end
   $var wire  1 o" clock $end
   $var wire  8 )# io_fieldNumber [7:0] $end
   $var wire  8 1# io_keySize [7:0] $end
   $var wire  1 A# io_valid $end
   $var wire 16 9# io_valueSize [15:0] $end
   $var wire  3 !# io_wireType [2:0] $end
   $var wire  1 o" memory_clock $end
   $var wire 10 M! memory_io_readAddress_bits [9:0] $end
   $var wire  8 # memory_io_readData_bits_0 [7:0] $end
   $var wire  8 + memory_io_readData_bits_1 [7:0] $end
   $var wire  8 3 memory_io_readData_bits_2 [7:0] $end
   $var wire  8 ; memory_io_readData_bits_3 [7:0] $end
   $var wire  1 U! memory_io_readData_valid $end
   $var wire  1 w" memory_reset $end
   $var wire  1 w" reset $end
   $scope module OffsetMap $end
    $var wire  8 # io_input_0 [7:0] $end
    $var wire  8 + io_input_1 [7:0] $end
    $var wire  8 3 io_input_2 [7:0] $end
    $var wire  8 ; io_input_3 [7:0] $end
    $var wire  8 K io_offset [7:0] $end
    $var wire  8 S io_output_0 [7:0] $end
    $var wire  8 [ io_output_1 [7:0] $end
    $var wire  8 c io_output_2 [7:0] $end
    $var wire  8 k io_output_3 [7:0] $end
   $upscope $end
   $scope module VarintDecoder $end
    $var wire  8 K io_bytes_read [7:0] $end
    $var wire  8 # io_input_0 [7:0] $end
    $var wire  8 + io_input_1 [7:0] $end
    $var wire  8 3 io_input_2 [7:0] $end
    $var wire  8 ; io_input_3 [7:0] $end
    $var wire 32 C io_output [31:0] $end
   $upscope $end
   $scope module memory $end
    $var wire  1 o" clock $end
    $var wire 10 M! io_readAddress_bits [9:0] $end
    $var wire  8 # io_readData_bits_0 [7:0] $end
    $var wire  8 + io_readData_bits_1 [7:0] $end
    $var wire  8 3 io_readData_bits_2 [7:0] $end
    $var wire  8 ; io_readData_bits_3 [7:0] $end
    $var wire  1 U! io_readData_valid $end
    $var wire  9 +$ mem_0__T_10_addr [8:0] $end
    $var wire  8 a# mem_0__T_10_data [7:0] $end
    $var wire  1 I# mem_0__T_10_en $end
    $var wire  1 i# mem_0__T_10_mask $end
    $var wire  9 +$ mem_0__T_11_addr [8:0] $end
    $var wire  8 a# mem_0__T_11_data [7:0] $end
    $var wire  1 I# mem_0__T_11_en $end
    $var wire  1 i# mem_0__T_11_mask $end
    $var wire  9 ;$ mem_0__T_12_addr [8:0] $end
    $var wire  8 3$ mem_0__T_12_data [7:0] $end
    $var wire  1 I# mem_0__T_12_en $end
    $var wire  1 I# mem_0__T_12_mask $end
    $var wire  9 ;$ mem_0__T_13_addr [8:0] $end
    $var wire  8 a# mem_0__T_13_data [7:0] $end
    $var wire  1 I# mem_0__T_13_en $end
    $var wire  1 i# mem_0__T_13_mask $end
    $var wire  9 ;$ mem_0__T_14_addr [8:0] $end
    $var wire  8 a# mem_0__T_14_data [7:0] $end
    $var wire  1 I# mem_0__T_14_en $end
    $var wire  1 i# mem_0__T_14_mask $end
    $var wire  9 ;$ mem_0__T_15_addr [8:0] $end
    $var wire  8 a# mem_0__T_15_data [7:0] $end
    $var wire  1 I# mem_0__T_15_en $end
    $var wire  1 i# mem_0__T_15_mask $end
    $var wire  9 K$ mem_0__T_16_addr [8:0] $end
    $var wire  8 C$ mem_0__T_16_data [7:0] $end
    $var wire  1 I# mem_0__T_16_en $end
    $var wire  1 I# mem_0__T_16_mask $end
    $var wire  9 K$ mem_0__T_17_addr [8:0] $end
    $var wire  8 a# mem_0__T_17_data [7:0] $end
    $var wire  1 I# mem_0__T_17_en $end
    $var wire  1 i# mem_0__T_17_mask $end
    $var wire  9 K$ mem_0__T_18_addr [8:0] $end
    $var wire  8 a# mem_0__T_18_data [7:0] $end
    $var wire  1 I# mem_0__T_18_en $end
    $var wire  1 i# mem_0__T_18_mask $end
    $var wire  9 K$ mem_0__T_19_addr [8:0] $end
    $var wire  8 a# mem_0__T_19_data [7:0] $end
    $var wire  1 I# mem_0__T_19_en $end
    $var wire  1 i# mem_0__T_19_mask $end
    $var wire  9 Y# mem_0__T_1_addr [8:0] $end
    $var wire  8 a# mem_0__T_1_data [7:0] $end
    $var wire  1 I# mem_0__T_1_en $end
    $var wire  1 i# mem_0__T_1_mask $end
    $var wire  9 [$ mem_0__T_20_addr [8:0] $end
    $var wire  8 S$ mem_0__T_20_data [7:0] $end
    $var wire  1 I# mem_0__T_20_en $end
    $var wire  1 I# mem_0__T_20_mask $end
    $var wire  9 Y# mem_0__T_2_addr [8:0] $end
    $var wire  8 a# mem_0__T_2_data [7:0] $end
    $var wire  1 I# mem_0__T_2_en $end
    $var wire  1 i# mem_0__T_2_mask $end
    $var wire  9 Y# mem_0__T_3_addr [8:0] $end
    $var wire  8 a# mem_0__T_3_data [7:0] $end
    $var wire  1 I# mem_0__T_3_en $end
    $var wire  1 i# mem_0__T_3_mask $end
    $var wire  9 y# mem_0__T_4_addr [8:0] $end
    $var wire  8 q# mem_0__T_4_data [7:0] $end
    $var wire  1 I# mem_0__T_4_en $end
    $var wire  1 I# mem_0__T_4_mask $end
    $var wire  9 y# mem_0__T_5_addr [8:0] $end
    $var wire  8 a# mem_0__T_5_data [7:0] $end
    $var wire  1 I# mem_0__T_5_en $end
    $var wire  1 i# mem_0__T_5_mask $end
    $var wire  9 y# mem_0__T_6_addr [8:0] $end
    $var wire  8 a# mem_0__T_6_data [7:0] $end
    $var wire  1 I# mem_0__T_6_en $end
    $var wire  1 i# mem_0__T_6_mask $end
    $var wire  9 y# mem_0__T_7_addr [8:0] $end
    $var wire  8 a# mem_0__T_7_data [7:0] $end
    $var wire  1 I# mem_0__T_7_en $end
    $var wire  1 i# mem_0__T_7_mask $end
    $var wire  9 +$ mem_0__T_8_addr [8:0] $end
    $var wire  8 #$ mem_0__T_8_data [7:0] $end
    $var wire  1 I# mem_0__T_8_en $end
    $var wire  1 I# mem_0__T_8_mask $end
    $var wire  9 +$ mem_0__T_9_addr [8:0] $end
    $var wire  8 a# mem_0__T_9_data [7:0] $end
    $var wire  1 I# mem_0__T_9_en $end
    $var wire  1 i# mem_0__T_9_mask $end
    $var wire  9 Y# mem_0__T_addr [8:0] $end
    $var wire  8 Q# mem_0__T_data [7:0] $end
    $var wire  1 I# mem_0__T_en $end
    $var wire  1 I# mem_0__T_mask $end
    $var wire  9 e! mem_0_readCurrent_addr [8:0] $end
    $var wire  9 e! mem_0_readCurrent_addr_pipe_0 [8:0] $end
    $var wire  8 %! mem_0_readCurrent_data [7:0] $end
    $var wire  1 m! mem_0_readCurrent_en_pipe_0 $end
    $var wire  9 +$ mem_1__T_10_addr [8:0] $end
    $var wire  8 a# mem_1__T_10_data [7:0] $end
    $var wire  1 I# mem_1__T_10_en $end
    $var wire  1 i# mem_1__T_10_mask $end
    $var wire  9 +$ mem_1__T_11_addr [8:0] $end
    $var wire  8 a# mem_1__T_11_data [7:0] $end
    $var wire  1 I# mem_1__T_11_en $end
    $var wire  1 i# mem_1__T_11_mask $end
    $var wire  9 ;$ mem_1__T_12_addr [8:0] $end
    $var wire  8 a# mem_1__T_12_data [7:0] $end
    $var wire  1 I# mem_1__T_12_en $end
    $var wire  1 i# mem_1__T_12_mask $end
    $var wire  9 ;$ mem_1__T_13_addr [8:0] $end
    $var wire  8 s$ mem_1__T_13_data [7:0] $end
    $var wire  1 I# mem_1__T_13_en $end
    $var wire  1 I# mem_1__T_13_mask $end
    $var wire  9 ;$ mem_1__T_14_addr [8:0] $end
    $var wire  8 a# mem_1__T_14_data [7:0] $end
    $var wire  1 I# mem_1__T_14_en $end
    $var wire  1 i# mem_1__T_14_mask $end
    $var wire  9 ;$ mem_1__T_15_addr [8:0] $end
    $var wire  8 a# mem_1__T_15_data [7:0] $end
    $var wire  1 I# mem_1__T_15_en $end
    $var wire  1 i# mem_1__T_15_mask $end
    $var wire  9 K$ mem_1__T_16_addr [8:0] $end
    $var wire  8 a# mem_1__T_16_data [7:0] $end
    $var wire  1 I# mem_1__T_16_en $end
    $var wire  1 i# mem_1__T_16_mask $end
    $var wire  9 K$ mem_1__T_17_addr [8:0] $end
    $var wire  8 a# mem_1__T_17_data [7:0] $end
    $var wire  1 I# mem_1__T_17_en $end
    $var wire  1 I# mem_1__T_17_mask $end
    $var wire  9 K$ mem_1__T_18_addr [8:0] $end
    $var wire  8 a# mem_1__T_18_data [7:0] $end
    $var wire  1 I# mem_1__T_18_en $end
    $var wire  1 i# mem_1__T_18_mask $end
    $var wire  9 K$ mem_1__T_19_addr [8:0] $end
    $var wire  8 a# mem_1__T_19_data [7:0] $end
    $var wire  1 I# mem_1__T_19_en $end
    $var wire  1 i# mem_1__T_19_mask $end
    $var wire  9 Y# mem_1__T_1_addr [8:0] $end
    $var wire  8 c$ mem_1__T_1_data [7:0] $end
    $var wire  1 I# mem_1__T_1_en $end
    $var wire  1 I# mem_1__T_1_mask $end
    $var wire  9 [$ mem_1__T_20_addr [8:0] $end
    $var wire  8 a# mem_1__T_20_data [7:0] $end
    $var wire  1 I# mem_1__T_20_en $end
    $var wire  1 i# mem_1__T_20_mask $end
    $var wire  9 Y# mem_1__T_2_addr [8:0] $end
    $var wire  8 a# mem_1__T_2_data [7:0] $end
    $var wire  1 I# mem_1__T_2_en $end
    $var wire  1 i# mem_1__T_2_mask $end
    $var wire  9 Y# mem_1__T_3_addr [8:0] $end
    $var wire  8 a# mem_1__T_3_data [7:0] $end
    $var wire  1 I# mem_1__T_3_en $end
    $var wire  1 i# mem_1__T_3_mask $end
    $var wire  9 y# mem_1__T_4_addr [8:0] $end
    $var wire  8 a# mem_1__T_4_data [7:0] $end
    $var wire  1 I# mem_1__T_4_en $end
    $var wire  1 i# mem_1__T_4_mask $end
    $var wire  9 y# mem_1__T_5_addr [8:0] $end
    $var wire  8 k$ mem_1__T_5_data [7:0] $end
    $var wire  1 I# mem_1__T_5_en $end
    $var wire  1 I# mem_1__T_5_mask $end
    $var wire  9 y# mem_1__T_6_addr [8:0] $end
    $var wire  8 a# mem_1__T_6_data [7:0] $end
    $var wire  1 I# mem_1__T_6_en $end
    $var wire  1 i# mem_1__T_6_mask $end
    $var wire  9 y# mem_1__T_7_addr [8:0] $end
    $var wire  8 a# mem_1__T_7_data [7:0] $end
    $var wire  1 I# mem_1__T_7_en $end
    $var wire  1 i# mem_1__T_7_mask $end
    $var wire  9 +$ mem_1__T_8_addr [8:0] $end
    $var wire  8 a# mem_1__T_8_data [7:0] $end
    $var wire  1 I# mem_1__T_8_en $end
    $var wire  1 i# mem_1__T_8_mask $end
    $var wire  9 +$ mem_1__T_9_addr [8:0] $end
    $var wire  8 s$ mem_1__T_9_data [7:0] $end
    $var wire  1 I# mem_1__T_9_en $end
    $var wire  1 I# mem_1__T_9_mask $end
    $var wire  9 Y# mem_1__T_addr [8:0] $end
    $var wire  8 a# mem_1__T_data [7:0] $end
    $var wire  1 I# mem_1__T_en $end
    $var wire  1 i# mem_1__T_mask $end
    $var wire  9 e! mem_1_readCurrent_addr [8:0] $end
    $var wire  9 e! mem_1_readCurrent_addr_pipe_0 [8:0] $end
    $var wire  8 -! mem_1_readCurrent_data [7:0] $end
    $var wire  1 u! mem_1_readCurrent_en_pipe_0 $end
    $var wire  9 +$ mem_2__T_10_addr [8:0] $end
    $var wire  8 -% mem_2__T_10_data [7:0] $end
    $var wire  1 I# mem_2__T_10_en $end
    $var wire  1 I# mem_2__T_10_mask $end
    $var wire  9 +$ mem_2__T_11_addr [8:0] $end
    $var wire  8 a# mem_2__T_11_data [7:0] $end
    $var wire  1 I# mem_2__T_11_en $end
    $var wire  1 i# mem_2__T_11_mask $end
    $var wire  9 ;$ mem_2__T_12_addr [8:0] $end
    $var wire  8 a# mem_2__T_12_data [7:0] $end
    $var wire  1 I# mem_2__T_12_en $end
    $var wire  1 i# mem_2__T_12_mask $end
    $var wire  9 ;$ mem_2__T_13_addr [8:0] $end
    $var wire  8 a# mem_2__T_13_data [7:0] $end
    $var wire  1 I# mem_2__T_13_en $end
    $var wire  1 i# mem_2__T_13_mask $end
    $var wire  9 ;$ mem_2__T_14_addr [8:0] $end
    $var wire  8 s$ mem_2__T_14_data [7:0] $end
    $var wire  1 I# mem_2__T_14_en $end
    $var wire  1 I# mem_2__T_14_mask $end
    $var wire  9 ;$ mem_2__T_15_addr [8:0] $end
    $var wire  8 a# mem_2__T_15_data [7:0] $end
    $var wire  1 I# mem_2__T_15_en $end
    $var wire  1 i# mem_2__T_15_mask $end
    $var wire  9 K$ mem_2__T_16_addr [8:0] $end
    $var wire  8 a# mem_2__T_16_data [7:0] $end
    $var wire  1 I# mem_2__T_16_en $end
    $var wire  1 i# mem_2__T_16_mask $end
    $var wire  9 K$ mem_2__T_17_addr [8:0] $end
    $var wire  8 a# mem_2__T_17_data [7:0] $end
    $var wire  1 I# mem_2__T_17_en $end
    $var wire  1 i# mem_2__T_17_mask $end
    $var wire  9 K$ mem_2__T_18_addr [8:0] $end
    $var wire  8 a# mem_2__T_18_data [7:0] $end
    $var wire  1 I# mem_2__T_18_en $end
    $var wire  1 I# mem_2__T_18_mask $end
    $var wire  9 K$ mem_2__T_19_addr [8:0] $end
    $var wire  8 a# mem_2__T_19_data [7:0] $end
    $var wire  1 I# mem_2__T_19_en $end
    $var wire  1 i# mem_2__T_19_mask $end
    $var wire  9 Y# mem_2__T_1_addr [8:0] $end
    $var wire  8 a# mem_2__T_1_data [7:0] $end
    $var wire  1 I# mem_2__T_1_en $end
    $var wire  1 i# mem_2__T_1_mask $end
    $var wire  9 [$ mem_2__T_20_addr [8:0] $end
    $var wire  8 a# mem_2__T_20_data [7:0] $end
    $var wire  1 I# mem_2__T_20_en $end
    $var wire  1 i# mem_2__T_20_mask $end
    $var wire  9 Y# mem_2__T_2_addr [8:0] $end
    $var wire  8 {$ mem_2__T_2_data [7:0] $end
    $var wire  1 I# mem_2__T_2_en $end
    $var wire  1 I# mem_2__T_2_mask $end
    $var wire  9 Y# mem_2__T_3_addr [8:0] $end
    $var wire  8 a# mem_2__T_3_data [7:0] $end
    $var wire  1 I# mem_2__T_3_en $end
    $var wire  1 i# mem_2__T_3_mask $end
    $var wire  9 y# mem_2__T_4_addr [8:0] $end
    $var wire  8 a# mem_2__T_4_data [7:0] $end
    $var wire  1 I# mem_2__T_4_en $end
    $var wire  1 i# mem_2__T_4_mask $end
    $var wire  9 y# mem_2__T_5_addr [8:0] $end
    $var wire  8 a# mem_2__T_5_data [7:0] $end
    $var wire  1 I# mem_2__T_5_en $end
    $var wire  1 i# mem_2__T_5_mask $end
    $var wire  9 y# mem_2__T_6_addr [8:0] $end
    $var wire  8 %% mem_2__T_6_data [7:0] $end
    $var wire  1 I# mem_2__T_6_en $end
    $var wire  1 I# mem_2__T_6_mask $end
    $var wire  9 y# mem_2__T_7_addr [8:0] $end
    $var wire  8 a# mem_2__T_7_data [7:0] $end
    $var wire  1 I# mem_2__T_7_en $end
    $var wire  1 i# mem_2__T_7_mask $end
    $var wire  9 +$ mem_2__T_8_addr [8:0] $end
    $var wire  8 a# mem_2__T_8_data [7:0] $end
    $var wire  1 I# mem_2__T_8_en $end
    $var wire  1 i# mem_2__T_8_mask $end
    $var wire  9 +$ mem_2__T_9_addr [8:0] $end
    $var wire  8 a# mem_2__T_9_data [7:0] $end
    $var wire  1 I# mem_2__T_9_en $end
    $var wire  1 i# mem_2__T_9_mask $end
    $var wire  9 Y# mem_2__T_addr [8:0] $end
    $var wire  8 a# mem_2__T_data [7:0] $end
    $var wire  1 I# mem_2__T_en $end
    $var wire  1 i# mem_2__T_mask $end
    $var wire  9 e! mem_2_readCurrent_addr [8:0] $end
    $var wire  9 e! mem_2_readCurrent_addr_pipe_0 [8:0] $end
    $var wire  8 5! mem_2_readCurrent_data [7:0] $end
    $var wire  1 }! mem_2_readCurrent_en_pipe_0 $end
    $var wire  9 +$ mem_3__T_10_addr [8:0] $end
    $var wire  8 a# mem_3__T_10_data [7:0] $end
    $var wire  1 I# mem_3__T_10_en $end
    $var wire  1 i# mem_3__T_10_mask $end
    $var wire  9 +$ mem_3__T_11_addr [8:0] $end
    $var wire  8 #$ mem_3__T_11_data [7:0] $end
    $var wire  1 I# mem_3__T_11_en $end
    $var wire  1 I# mem_3__T_11_mask $end
    $var wire  9 ;$ mem_3__T_12_addr [8:0] $end
    $var wire  8 a# mem_3__T_12_data [7:0] $end
    $var wire  1 I# mem_3__T_12_en $end
    $var wire  1 i# mem_3__T_12_mask $end
    $var wire  9 ;$ mem_3__T_13_addr [8:0] $end
    $var wire  8 a# mem_3__T_13_data [7:0] $end
    $var wire  1 I# mem_3__T_13_en $end
    $var wire  1 i# mem_3__T_13_mask $end
    $var wire  9 ;$ mem_3__T_14_addr [8:0] $end
    $var wire  8 a# mem_3__T_14_data [7:0] $end
    $var wire  1 I# mem_3__T_14_en $end
    $var wire  1 i# mem_3__T_14_mask $end
    $var wire  9 ;$ mem_3__T_15_addr [8:0] $end
    $var wire  8 =% mem_3__T_15_data [7:0] $end
    $var wire  1 I# mem_3__T_15_en $end
    $var wire  1 I# mem_3__T_15_mask $end
    $var wire  9 K$ mem_3__T_16_addr [8:0] $end
    $var wire  8 a# mem_3__T_16_data [7:0] $end
    $var wire  1 I# mem_3__T_16_en $end
    $var wire  1 i# mem_3__T_16_mask $end
    $var wire  9 K$ mem_3__T_17_addr [8:0] $end
    $var wire  8 a# mem_3__T_17_data [7:0] $end
    $var wire  1 I# mem_3__T_17_en $end
    $var wire  1 i# mem_3__T_17_mask $end
    $var wire  9 K$ mem_3__T_18_addr [8:0] $end
    $var wire  8 a# mem_3__T_18_data [7:0] $end
    $var wire  1 I# mem_3__T_18_en $end
    $var wire  1 i# mem_3__T_18_mask $end
    $var wire  9 K$ mem_3__T_19_addr [8:0] $end
    $var wire  8 E% mem_3__T_19_data [7:0] $end
    $var wire  1 I# mem_3__T_19_en $end
    $var wire  1 I# mem_3__T_19_mask $end
    $var wire  9 Y# mem_3__T_1_addr [8:0] $end
    $var wire  8 a# mem_3__T_1_data [7:0] $end
    $var wire  1 I# mem_3__T_1_en $end
    $var wire  1 i# mem_3__T_1_mask $end
    $var wire  9 [$ mem_3__T_20_addr [8:0] $end
    $var wire  8 a# mem_3__T_20_data [7:0] $end
    $var wire  1 I# mem_3__T_20_en $end
    $var wire  1 i# mem_3__T_20_mask $end
    $var wire  9 Y# mem_3__T_2_addr [8:0] $end
    $var wire  8 a# mem_3__T_2_data [7:0] $end
    $var wire  1 I# mem_3__T_2_en $end
    $var wire  1 i# mem_3__T_2_mask $end
    $var wire  9 Y# mem_3__T_3_addr [8:0] $end
    $var wire  8 5% mem_3__T_3_data [7:0] $end
    $var wire  1 I# mem_3__T_3_en $end
    $var wire  1 I# mem_3__T_3_mask $end
    $var wire  9 y# mem_3__T_4_addr [8:0] $end
    $var wire  8 a# mem_3__T_4_data [7:0] $end
    $var wire  1 I# mem_3__T_4_en $end
    $var wire  1 i# mem_3__T_4_mask $end
    $var wire  9 y# mem_3__T_5_addr [8:0] $end
    $var wire  8 a# mem_3__T_5_data [7:0] $end
    $var wire  1 I# mem_3__T_5_en $end
    $var wire  1 i# mem_3__T_5_mask $end
    $var wire  9 y# mem_3__T_6_addr [8:0] $end
    $var wire  8 a# mem_3__T_6_data [7:0] $end
    $var wire  1 I# mem_3__T_6_en $end
    $var wire  1 i# mem_3__T_6_mask $end
    $var wire  9 y# mem_3__T_7_addr [8:0] $end
    $var wire  8 Q# mem_3__T_7_data [7:0] $end
    $var wire  1 I# mem_3__T_7_en $end
    $var wire  1 I# mem_3__T_7_mask $end
    $var wire  9 +$ mem_3__T_8_addr [8:0] $end
    $var wire  8 a# mem_3__T_8_data [7:0] $end
    $var wire  1 I# mem_3__T_8_en $end
    $var wire  1 i# mem_3__T_8_mask $end
    $var wire  9 +$ mem_3__T_9_addr [8:0] $end
    $var wire  8 a# mem_3__T_9_data [7:0] $end
    $var wire  1 I# mem_3__T_9_en $end
    $var wire  1 i# mem_3__T_9_mask $end
    $var wire  9 Y# mem_3__T_addr [8:0] $end
    $var wire  8 a# mem_3__T_data [7:0] $end
    $var wire  1 I# mem_3__T_en $end
    $var wire  1 i# mem_3__T_mask $end
    $var wire  9 e! mem_3_readCurrent_addr [8:0] $end
    $var wire  9 e! mem_3_readCurrent_addr_pipe_0 [8:0] $end
    $var wire  8 =! mem_3_readCurrent_data [7:0] $end
    $var wire  1 '" mem_3_readCurrent_en_pipe_0 $end
    $var wire 10 E! readAddress [9:0] $end
    $var wire  1 o" readAddressQueue_clock $end
    $var wire 10 { readAddressQueue_io_deq_bits [9:0] $end
    $var wire  1 ]! readAddressQueue_io_deq_ready $end
    $var wire  1 I# readAddressQueue_io_deq_valid $end
    $var wire 10 M! readAddressQueue_io_enq_bits [9:0] $end
    $var wire  1 s readAddressQueue_io_enq_ready $end
    $var wire  1 w" readAddressQueue_reset $end
    $var wire  8 ?" readLast_0 [7:0] $end
    $var wire  8 G" readLast_1 [7:0] $end
    $var wire  8 O" readLast_2 [7:0] $end
    $var wire  8 W" readLast_3 [7:0] $end
    $var wire 10 7" readUAddress [9:0] $end
    $var wire  1 w" reset $end
    $var wire  2 /" state [1:0] $end
    $scope module readAddressQueue $end
     $var wire  1 o" clock $end
     $var wire 10 { io_deq_bits [9:0] $end
     $var wire  1 ]! io_deq_ready $end
     $var wire  1 I# io_deq_valid $end
     $var wire 10 M! io_enq_bits [9:0] $end
     $var wire  1 s io_enq_ready $end
     $var wire  1 w" reset $end
     $var wire  1 _" value $end
     $var wire  1 g" value_1 $end
    $upscope $end
   $upscope $end
  $upscope $end
 $upscope $end
$enddefinitions $end


#0
b00000000 #
b00000000 +
b00000000 3
b00000000 ;
b00000000000000000000000000000000 C
b00000001 K
b00000000 S
b00000000 [
b00000000 c
b00000000 k
1s
b0000000000 {
b00000000 %!
b00000000 -!
b00000000 5!
b00000000 =!
b0000000000 E!
b0000000000 M!
0U!
1]!
b000000000 e!
0m!
0u!
0}!
0'"
b00 /"
b0000000000 7"
b00000000 ?"
b00000000 G"
b00000000 O"
b00000000 W"
0_"
0g"
0o"
1w"
b000 !#
b00000000 )#
b00000001 1#
b0000000000000001 9#
0A#
1I#
b00001000 Q#
b000000000 Y#
b00000000 a#
0i#
b11111111 q#
b000000001 y#
b01000100 #$
b000000010 +$
b01000010 3$
b000000011 ;$
b00100101 C$
b000000100 K$
b00111111 S$
b000000101 [$
b10010110 c$
b00001111 k$
b01000101 s$
b00000001 {$
b00011010 %%
b01000001 -%
b00010000 5%
b01000110 =%
b11000000 E%
#1
b00001000 %!
b10010110 -!
b00000001 5!
b00010000 =!
1m!
1u!
1}!
1'"
b0000000100 7"
1o"
#2
0o"
#3
b00001000 #
b10010110 +
b00000001 3
b00010000 ;
b00000000000000000000000000001000 C
b10010110 S
b00000001 [
b00010000 c
b00001000 ?"
b10010110 G"
b00000001 O"
b00010000 W"
1o"
b00000001 )#
b0000000000000010 9#
#4
0o"
#5
1o"
#6
0o"
#7
1o"
#8
0o"
#9
1o"
#10
0o"
0w"
#11
1U!
0]!
b10 /"
1o"
1A#
#12
0o"
#13
b0000000011 M!
0U!
1]!
b00 /"
1_"
1o"
0A#
#14
0o"
#15
b0000000011 {
1U!
0]!
b10 /"
0_"
1g"
1o"
1A#
#16
0o"
#17
b0000000001 E!
b0000000110 M!
0U!
1]!
b00 /"
1_"
1o"
0A#
#18
0o"
#19
b00010000 #
b11111111 +
b00001111 3
b00011010 ;
b00000000000000000000000000010000 C
b11111111 S
b00001111 [
b00011010 c
0s
b11111111 %!
b00001111 -!
b00011010 5!
b00001000 =!
0]!
b000000001 e!
b01 /"
b0000000111 7"
0_"
0g"
1o"
b00000010 )#
#20
0o"
#21
b00001000 #
b00000000000000000000000000001000 C
1U!
b10 /"
b11111111 ?"
b00001111 G"
b00011010 O"
b00001000 W"
1o"
b00000001 )#
1A#
#22
0o"
#23
1s
b0000000010 E!
b0000001001 M!
0U!
1]!
b00 /"
1o"
0A#
#24
0o"
#25
b01000100 +
b01000101 3
b01000001 ;
b01000100 S
b01000101 [
b01000001 c
0s
b0000000110 {
b01000100 %!
b01000101 -!
b01000001 5!
b01000100 =!
b0000000001 E!
0]!
b000000010 e!
b01 /"
1_"
1g"
1o"
b0000000000000001 9#
#26
0o"
#27
b01000100 #
b11111111 +
b00001111 3
b00011010 ;
b00000000000000000000000001000100 C
b11111111 S
b00001111 [
b00011010 c
b11111111 %!
b00001111 -!
b00011010 5!
b00001000 =!
b0000000010 E!
1U!
b000000001 e!
b10 /"
b01000100 ?"
b01000101 G"
b01000001 O"
b01000100 W"
1o"
b100 !#
b00001000 )#
b0000000000000000 9#
1A#
#28
0o"
#29
b00001000 #
b01000100 +
b01000101 3
b01000001 ;
b00000000000000000000000000001000 C
b01000100 S
b01000101 [
b01000001 c
1s
b01000100 %!
b01000101 -!
b01000001 5!
b01000100 =!
b0000001010 M!
0U!
1]!
b000000010 e!
b00 /"
b11111111 ?"
b00001111 G"
b00011010 O"
b00001000 W"
1o"
b000 !#
b00000001 )#
b0000000000000001 9#
0A#
#30
0o"
#31
b01000001 #
b01000100 3
b01000101 ;
b00000000000000000000000001000001 C
b01000100 [
b01000101 c
0s
b0000001001 {
0]!
b01 /"
b0000001010 7"
b01000100 ?"
b01000101 G"
b01000001 O"
b01000100 W"
0_"
0g"
1o"
b001 !#
b00001000 )#
b0000000000001000 9#
#32
0o"
#33
1U!
b10 /"
1o"
1A#
#34
0o"
#35
1s
b0000000100 E!
b0000010011 M!
0U!
1]!
b00 /"
1o"
0A#
#36
0o"
#37
b01000101 #
b01000001 +
b00100101 ;
b00000000000000000000000001000101 C
b01000001 S
b00100101 c
0s
b0000001010 {
b00100101 %!
b00000000 -!
b00000000 5!
b11000000 =!
b0000000011 E!
0]!
b000000100 e!
b01 /"
b0000001101 7"
1_"
1g"
1o"
b101 !#
b0000000000000100 9#
#38
0o"
#39
b00000000 #
b00000000 +
b11000000 3
b01000010 ;
b00000000000000000000000000000000 C
b00000000 S
b11000000 [
b01000010 c
b01000010 %!
b01000101 -!
b01000101 5!
b01000110 =!
b0000000100 E!
1U!
b000000011 e!
b10 /"
b00100101 ?"
b00000000 G"
b00000000 O"
b11000000 W"
1o"
b000 !#
b00000000 )#
b0000000000000001 9#
1A#
#40
0o"
#41
b01000101 #
b01000101 +
b01000110 3
b00100101 ;
b00000000000000000000000001000101 C
b01000101 S
b01000110 [
b00100101 c
1s
b00100101 %!
b00000000 -!
b00000000 5!
b11000000 =!
b0000000101 E!
b0000010101 M!
0U!
1]!
b000000100 e!
b00 /"
b01000010 ?"
b01000101 G"
b01000101 O"
b01000110 W"
1o"
b101 !#
b00001000 )#
b0000000000000100 9#
0A#
#42
0o"
#43
b00000000 #
b11000000 +
b00111111 3
b00000000 ;
b00000000000000000000000000000000 C
b11000000 S
b00111111 [
b00000000 c
0s
b0000010011 {
b00111111 %!
b00000000 =!
b0000000011 E!
0]!
b000000101 e!
b01 /"
b0000001110 7"
b00100101 ?"
b00000000 G"
b00000000 O"
b11000000 W"
0_"
0g"
1o"
b000 !#
b00000000 )#
b0000000000000010 9#
#44
0o"
#45
b00000000 +
b01000010 3
b01000101 ;
b00000000 S
b01000010 [
b01000101 c
b01000010 %!
b01000101 -!
b01000101 5!
b01000110 =!
b0000000101 E!
1U!
b000000011 e!
b10 /"
b00111111 ?"
b00000000 W"
1o"
b0000000000000001 9#
1A#
#46
0o"
#47
b01000101 #
b01000110 +
b00111111 3
b00000000 ;
b00000000000000000000000001000101 C
b01000110 S
b00111111 [
b00000000 c
1s
b00111111 %!
b00000000 -!
b00000000 5!
b00000000 =!
b0000010111 M!
0U!
1]!
b000000101 e!
b00 /"
b01000010 ?"
b01000101 G"
b01000101 O"
b01000110 W"
1o"
b101 !#
b00001000 )#
b0000000000000100 9#
0A#
#48
0o"
#49
b00000000 #
b00111111 +
b00000000 3
b00000000000000000000000000000000 C
b00111111 S
b00000000 [
0s
b0000010101 {
0]!
b01 /"
b0000010111 7"
b00111111 ?"
b00000000 G"
b00000000 O"
b00000000 W"
1_"
1g"
1o"
b000 !#
b00000000 )#
b0000000000000001 9#
